PARTIALLY FILLED ARRAYS

Size = 7

Third variable, loc - location of array

void add(int a[], int size(), int &loc)
{
	//array is a memory location
	//this means psuedoreferenced
	if(location == size)
		return;
	int num;
	cin num;
	a[location] = num;
	a[loc] = num;
	loc++;
}

MULTI-DIMENSIONAL ARRAYS
-2 dimension

***	3x3
***	rows
***
columns

|123|	1= 0,0	8 = 2,1 6 =1,2
|456|
|789|

SYNTAX
int a[3][3]
    rows,columns

a[1][2] = 6;

Represent a deck of cards using a multidimensional array
bool cards [13][4]
	   card,suit
value -> if card is drawn or not
	t-> not drawn
	f-> drawn
col1 - hearts
col2 - diamonds
col3 - spades
col4 - clubs

row1 - aces
row2 - values
row11 - jack
row12 - queen
row13 - king

cards[0][0] = T
"Ace of hearts"

Create a function that initializes deck of cards to not drawn

void initialize(bool cards[][4],int row)	second dimension always needs a value
{
	//first for loop - rows
	for(int i = 0, i < row, i++)
	{
		for(int j =0; j < 4; j++)
		{
			cards[i][j] = true;
		}
	}
}

SORTING
|3|6|2|4|1|

sort in increasing order

16241
12643
12364
12346

SELECTION SORT
1.finding the ith smallest value
2.place smallest in correct location
3.

void selection_sort(vector<int> &v)	ALWAYS REFERENCE VECTORS
{
	//find the ith location
	for(int i =0; i < v.size(); i++)
	{
	//find minimum
	int loc = -1;
	int curmin= 999999999;
	//search every value for the minmum
	for(int j = 0; j < v.size(); j++)
	{
		if{v[j] < cur min)
		{
			loc = j;
			curmin = v[j];
		}
	}
	swap(v[loc], v[i]);
}

void bubble_sort(vector<int> &v)
{
	//first for loop -> worst case ->each pass
	for(int i = 0; i < v.size(); i++)
	{
	
	}
}
