cha seats [row][col];


vector<string> prep_add(const vector<string> &v)
{
	vector<string> prep;// declare an empty vector
	//checkeverywor
	for(int i = 0, i < v.size(); i++)
	{
		//linear search
		if(v[i] == "but" || v[i] == "and")
			prep.push.back(v.[i]
	}
	
	return prep;
}


Arrays and pointers are the same thing

int create_array(int size)
{
	int array[size];
	for(int i= 0; i < size; i++)
		array[i] = i;
	return array;
}

RETURN A DYNAMIC ARRAY
-using the new keyword

int* create_dynamic_array(int size)
{
	int *array = new int [size];
	for(int i = 0; i < size; i++
	{
		array[i] = i; // implicit derefernce
		//*(array + i) = i; // explicit dereference
	}
	
	return array;

}

int **p=new int*[5];
for(int i = 0; i < 5; i ++)
{
	//assign each value to a dynamic array
	p[i] = new int[s];